[api-updater (non-obsolete-error-filter)] 1/2/2022 9:21:56 AM : Starting C:/Program Files/Unity/Hub/Editor/2020.3.18f1/Editor/Data/Tools/ScriptUpdater/APIUpdater.NonObsoleteApiUpdaterDetector.exe
[api-updater (non-obsolete-error-filter)] 
----------------------------------
jit/startup time      : 789.133ms
moved types parse time: 55ms
candidates parse time : 40ms
C# parse time         : 464ms
candidates check time : 36ms
console write time    : 0ms

[api-updater (non-obsolete-error-filter)] 1/2/2022 9:22:58 AM : Starting C:/Program Files/Unity/Hub/Editor/2020.3.18f1/Editor/Data/Tools/ScriptUpdater/APIUpdater.NonObsoleteApiUpdaterDetector.exe
[api-updater (non-obsolete-error-filter)] 
----------------------------------
jit/startup time      : 55.3247ms
moved types parse time: 40ms
candidates parse time : 1ms
C# parse time         : 160ms
candidates check time : 33ms
console write time    : 0ms

[api-updater (non-obsolete-error-filter)] 1/2/2022 11:27:15 AM : Starting C:/Program Files/Unity/Hub/Editor/2020.3.18f1/Editor/Data/Tools/ScriptUpdater/APIUpdater.NonObsoleteApiUpdaterDetector.exe
[api-updater (non-obsolete-error-filter)] 
----------------------------------
jit/startup time      : 860.2117ms
moved types parse time: 40ms
candidates parse time : 1ms
C# parse time         : 186ms
candidates check time : 46ms
console write time    : 0ms

[api-updater (non-obsolete-error-filter)] 1/2/2022 11:28:48 AM : Starting C:/Program Files/Unity/Hub/Editor/2020.3.18f1/Editor/Data/Tools/ScriptUpdater/APIUpdater.NonObsoleteApiUpdaterDetector.exe
[api-updater (non-obsolete-error-filter)] 
----------------------------------
jit/startup time      : 55.0501ms
moved types parse time: 40ms
candidates parse time : 0ms
C# parse time         : 166ms
candidates check time : 41ms
console write time    : 0ms

[api-updater (non-obsolete-error-filter)] 1/2/2022 11:29:06 AM : Starting C:/Program Files/Unity/Hub/Editor/2020.3.18f1/Editor/Data/Tools/ScriptUpdater/APIUpdater.NonObsoleteApiUpdaterDetector.exe
[api-updater (non-obsolete-error-filter)] 
----------------------------------
jit/startup time      : 57.0504ms
moved types parse time: 41ms
candidates parse time : 1ms
C# parse time         : 168ms
candidates check time : 38ms
console write time    : 0ms

[api-updater (non-obsolete-error-filter)] 1/2/2022 11:29:51 AM : Starting C:/Program Files/Unity/Hub/Editor/2020.3.18f1/Editor/Data/Tools/ScriptUpdater/APIUpdater.NonObsoleteApiUpdaterDetector.exe
[api-updater (non-obsolete-error-filter)] 
----------------------------------
jit/startup time      : 56.0513ms
moved types parse time: 44ms
candidates parse time : 1ms
C# parse time         : 170ms
candidates check time : 38ms
console write time    : 0ms

[api-updater (non-obsolete-error-filter)] 1/2/2022 11:31:23 AM : Starting C:/Program Files/Unity/Hub/Editor/2020.3.18f1/Editor/Data/Tools/ScriptUpdater/APIUpdater.NonObsoleteApiUpdaterDetector.exe
[api-updater (non-obsolete-error-filter)] 
----------------------------------
jit/startup time      : 57.0509ms
moved types parse time: 40ms
candidates parse time : 1ms
C# parse time         : 163ms
candidates check time : 37ms
console write time    : 0ms

[api-updater (non-obsolete-error-filter)] 1/2/2022 11:31:43 AM : Starting C:/Program Files/Unity/Hub/Editor/2020.3.18f1/Editor/Data/Tools/ScriptUpdater/APIUpdater.NonObsoleteApiUpdaterDetector.exe
[api-updater (non-obsolete-error-filter)] 
----------------------------------
jit/startup time      : 56.0511ms
moved types parse time: 41ms
candidates parse time : 1ms
C# parse time         : 176ms
candidates check time : 38ms
console write time    : 0ms

[api-updater (non-obsolete-error-filter)] 1/2/2022 12:23:56 PM : Starting C:/Program Files/Unity/Hub/Editor/2020.3.18f1/Editor/Data/Tools/ScriptUpdater/APIUpdater.NonObsoleteApiUpdaterDetector.exe
[api-updater (non-obsolete-error-filter)] 
----------------------------------
jit/startup time      : 644.4787ms
moved types parse time: 40ms
candidates parse time : 1ms
C# parse time         : 181ms
candidates check time : 38ms
console write time    : 0ms

[api-updater (non-obsolete-error-filter)] 1/2/2022 12:31:00 PM : Starting C:/Program Files/Unity/Hub/Editor/2020.3.18f1/Editor/Data/Tools/ScriptUpdater/APIUpdater.NonObsoleteApiUpdaterDetector.exe
[api-updater (non-obsolete-error-filter)] 
----------------------------------
jit/startup time      : 428.375ms
moved types parse time: 43ms
candidates parse time : 1ms
C# parse time         : 180ms
candidates check time : 44ms
console write time    : 0ms

[api-updater (non-obsolete-error-filter)] 1/2/2022 12:31:03 PM : Starting C:/Program Files/Unity/Hub/Editor/2020.3.18f1/Editor/Data/Tools/ScriptUpdater/APIUpdater.NonObsoleteApiUpdaterDetector.exe
[api-updater (non-obsolete-error-filter)] 
----------------------------------
jit/startup time      : 56.5132ms
moved types parse time: 41ms
candidates parse time : 1ms
C# parse time         : 175ms
candidates check time : 42ms
console write time    : 0ms

[api-updater (non-obsolete-error-filter)] 1/2/2022 12:54:12 PM : Starting C:/Program Files/Unity/Hub/Editor/2020.3.18f1/Editor/Data/Tools/ScriptUpdater/APIUpdater.NonObsoleteApiUpdaterDetector.exe
[api-updater (non-obsolete-error-filter)] 
----------------------------------
jit/startup time      : 569.7892ms
moved types parse time: 41ms
candidates parse time : 0ms
C# parse time         : 170ms
candidates check time : 39ms
console write time    : 0ms

[api-updater (non-obsolete-error-filter)] 1/2/2022 12:55:06 PM : Starting C:/Program Files/Unity/Hub/Editor/2020.3.18f1/Editor/Data/Tools/ScriptUpdater/APIUpdater.NonObsoleteApiUpdaterDetector.exe
[api-updater (non-obsolete-error-filter)] 
----------------------------------
jit/startup time      : 56.5225ms
moved types parse time: 46ms
candidates parse time : 1ms
C# parse time         : 172ms
candidates check time : 41ms
console write time    : 0ms

[api-updater (non-obsolete-error-filter)] 1/2/2022 1:29:35 PM : Starting C:/Program Files/Unity/Hub/Editor/2020.3.18f1/Editor/Data/Tools/ScriptUpdater/APIUpdater.NonObsoleteApiUpdaterDetector.exe
[api-updater (non-obsolete-error-filter)] 
----------------------------------
jit/startup time      : 59.327ms
moved types parse time: 41ms
candidates parse time : 1ms
C# parse time         : 312ms
candidates check time : 34ms
console write time    : 0ms

[api-updater (non-obsolete-error-filter)] 1/2/2022 1:35:39 PM : Starting C:/Program Files/Unity/Hub/Editor/2020.3.18f1/Editor/Data/Tools/ScriptUpdater/APIUpdater.NonObsoleteApiUpdaterDetector.exe
[api-updater (non-obsolete-error-filter)] 
----------------------------------
jit/startup time      : 61.0524ms
moved types parse time: 42ms
candidates parse time : 1ms
C# parse time         : 177ms
candidates check time : 106ms
console write time    : 0ms

[api-updater (non-obsolete-error-filter)] 1/2/2022 5:33:02 PM : Starting C:/Program Files/Unity/Hub/Editor/2020.3.18f1/Editor/Data/Tools/ScriptUpdater/APIUpdater.NonObsoleteApiUpdaterDetector.exe
[api-updater (non-obsolete-error-filter)] 
----------------------------------
jit/startup time      : 1132.5486ms
moved types parse time: 41ms
candidates parse time : 1ms
C# parse time         : 171ms
candidates check time : 41ms
console write time    : 0ms

[api-updater (non-obsolete-error-filter)] 1/2/2022 6:00:25 PM : Starting C:/Program Files/Unity/Hub/Editor/2020.3.18f1/Editor/Data/Tools/ScriptUpdater/APIUpdater.NonObsoleteApiUpdaterDetector.exe
[api-updater (non-obsolete-error-filter)] 
----------------------------------
jit/startup time      : 57.7366ms
moved types parse time: 44ms
candidates parse time : 1ms
C# parse time         : 176ms
candidates check time : 61ms
console write time    : 0ms

[api-updater (non-obsolete-error-filter)] 1/2/2022 6:01:17 PM : Starting C:/Program Files/Unity/Hub/Editor/2020.3.18f1/Editor/Data/Tools/ScriptUpdater/APIUpdater.NonObsoleteApiUpdaterDetector.exe
[api-updater (non-obsolete-error-filter)] 
----------------------------------
jit/startup time      : 58.6944ms
moved types parse time: 41ms
candidates parse time : 1ms
C# parse time         : 176ms
candidates check time : 56ms
console write time    : 0ms

[api-updater (non-obsolete-error-filter)] 1/2/2022 7:21:35 PM : Starting C:/Program Files/Unity/Hub/Editor/2020.3.18f1/Editor/Data/Tools/ScriptUpdater/APIUpdater.NonObsoleteApiUpdaterDetector.exe
[api-updater (non-obsolete-error-filter)] 
----------------------------------
jit/startup time      : 66.9362ms
moved types parse time: 53ms
candidates parse time : 1ms
C# parse time         : 193ms
candidates check time : 29ms
console write time    : 0ms

[api-updater (non-obsolete-error-filter)] 1/7/2022 8:24:32 AM : Starting C:/Program Files/Unity/Hub/Editor/2020.3.18f1/Editor/Data/Tools/ScriptUpdater/APIUpdater.NonObsoleteApiUpdaterDetector.exe
[api-updater (non-obsolete-error-filter)] 
----------------------------------
jit/startup time      : 1104.5723ms
moved types parse time: 84ms
candidates parse time : 10ms
C# parse time         : 344ms
candidates check time : 25ms
console write time    : 0ms

[api-updater (non-obsolete-error-filter)] 1/7/2022 9:26:52 AM : Starting C:/Program Files/Unity/Hub/Editor/2020.3.18f1/Editor/Data/Tools/ScriptUpdater/APIUpdater.NonObsoleteApiUpdaterDetector.exe
[api-updater (non-obsolete-error-filter)] 
----------------------------------
jit/startup time      : 4493.1279ms
moved types parse time: 40ms
candidates parse time : 1ms
C# parse time         : 843ms
candidates check time : 93ms
console write time    : 0ms

[api-updater (non-obsolete-error-filter)] 1/7/2022 10:37:59 AM : Starting C:/Program Files/Unity/Hub/Editor/2020.3.18f1/Editor/Data/Tools/ScriptUpdater/APIUpdater.NonObsoleteApiUpdaterDetector.exe
[api-updater (non-obsolete-error-filter)] 
----------------------------------
jit/startup time      : 86.0773ms
moved types parse time: 41ms
candidates parse time : 1ms
C# parse time         : 164ms
candidates check time : 41ms
console write time    : 0ms

[api-updater (non-obsolete-error-filter)] 1/7/2022 10:40:57 AM : Starting C:/Program Files/Unity/Hub/Editor/2020.3.18f1/Editor/Data/Tools/ScriptUpdater/APIUpdater.NonObsoleteApiUpdaterDetector.exe
[api-updater (non-obsolete-error-filter)] 
----------------------------------
jit/startup time      : 56.0501ms
moved types parse time: 42ms
candidates parse time : 1ms
C# parse time         : 169ms
candidates check time : 40ms
console write time    : 0ms

[api-updater (non-obsolete-error-filter)] 1/7/2022 10:43:14 AM : Starting C:/Program Files/Unity/Hub/Editor/2020.3.18f1/Editor/Data/Tools/ScriptUpdater/APIUpdater.NonObsoleteApiUpdaterDetector.exe
[api-updater (non-obsolete-error-filter)] 
----------------------------------
jit/startup time      : 54.0505ms
moved types parse time: 41ms
candidates parse time : 1ms
C# parse time         : 164ms
candidates check time : 39ms
console write time    : 0ms

[api-updater (non-obsolete-error-filter)] 1/7/2022 10:43:25 AM : Starting C:/Program Files/Unity/Hub/Editor/2020.3.18f1/Editor/Data/Tools/ScriptUpdater/APIUpdater.NonObsoleteApiUpdaterDetector.exe
[api-updater (non-obsolete-error-filter)] 
----------------------------------
jit/startup time      : 63.0575ms
moved types parse time: 48ms
candidates parse time : 1ms
C# parse time         : 180ms
candidates check time : 41ms
console write time    : 0ms

[api-updater (non-obsolete-error-filter)] 1/7/2022 10:44:42 AM : Starting C:/Program Files/Unity/Hub/Editor/2020.3.18f1/Editor/Data/Tools/ScriptUpdater/APIUpdater.NonObsoleteApiUpdaterDetector.exe
[api-updater (non-obsolete-error-filter)] 
----------------------------------
jit/startup time      : 55.0507ms
moved types parse time: 43ms
candidates parse time : 1ms
C# parse time         : 166ms
candidates check time : 41ms
console write time    : 0ms

[api-updater (non-obsolete-error-filter)] 1/7/2022 11:09:38 AM : Starting C:/Program Files/Unity/Hub/Editor/2020.3.18f1/Editor/Data/Tools/ScriptUpdater/APIUpdater.NonObsoleteApiUpdaterDetector.exe
[api-updater (non-obsolete-error-filter)] 
----------------------------------
jit/startup time      : 101.0918ms
moved types parse time: 42ms
candidates parse time : 0ms
C# parse time         : 187ms
candidates check time : 72ms
console write time    : 0ms

[api-updater (non-obsolete-error-filter)] 1/7/2022 11:11:02 AM : Starting C:/Program Files/Unity/Hub/Editor/2020.3.18f1/Editor/Data/Tools/ScriptUpdater/APIUpdater.NonObsoleteApiUpdaterDetector.exe
[api-updater (non-obsolete-error-filter)] 
----------------------------------
jit/startup time      : 738.1581ms
moved types parse time: 41ms
candidates parse time : 0ms
C# parse time         : 163ms
candidates check time : 229ms
console write time    : 0ms

[api-updater (non-obsolete-error-filter)] 1/7/2022 11:11:53 AM : Starting C:/Program Files/Unity/Hub/Editor/2020.3.18f1/Editor/Data/Tools/ScriptUpdater/APIUpdater.NonObsoleteApiUpdaterDetector.exe
[api-updater (non-obsolete-error-filter)] 
----------------------------------
jit/startup time      : 434.5687ms
moved types parse time: 40ms
candidates parse time : 1ms
C# parse time         : 339ms
candidates check time : 33ms
console write time    : 0ms

[api-updater (non-obsolete-error-filter)] 1/7/2022 11:31:22 AM : Starting C:/Program Files/Unity/Hub/Editor/2020.3.18f1/Editor/Data/Tools/ScriptUpdater/APIUpdater.NonObsoleteApiUpdaterDetector.exe
[api-updater (non-obsolete-error-filter)] 
----------------------------------
jit/startup time      : 56.051ms
moved types parse time: 41ms
candidates parse time : 1ms
C# parse time         : 200ms
candidates check time : 31ms
console write time    : 0ms

[api-updater (non-obsolete-error-filter)] 1/7/2022 11:31:50 AM : Starting C:/Program Files/Unity/Hub/Editor/2020.3.18f1/Editor/Data/Tools/ScriptUpdater/APIUpdater.NonObsoleteApiUpdaterDetector.exe
[api-updater (non-obsolete-error-filter)] 
----------------------------------
jit/startup time      : 61.0553ms
moved types parse time: 42ms
candidates parse time : 1ms
C# parse time         : 167ms
candidates check time : 26ms
console write time    : 0ms

[api-updater (non-obsolete-error-filter)] 1/10/2022 8:20:27 AM : Starting C:/Program Files/Unity/Hub/Editor/2020.3.18f1/Editor/Data/Tools/ScriptUpdater/APIUpdater.NonObsoleteApiUpdaterDetector.exe
[api-updater (non-obsolete-error-filter)] 
----------------------------------
jit/startup time      : 3532.5106ms
moved types parse time: 101ms
candidates parse time : 1ms
C# parse time         : 2975ms
candidates check time : 29ms
console write time    : 0ms

[api-updater (non-obsolete-error-filter)] 1/10/2022 9:00:45 AM : Starting C:/Program Files/Unity/Hub/Editor/2020.3.18f1/Editor/Data/Tools/ScriptUpdater/APIUpdater.NonObsoleteApiUpdaterDetector.exe
[api-updater (non-obsolete-error-filter)] 
----------------------------------
jit/startup time      : 301.2737ms
moved types parse time: 40ms
candidates parse time : 1ms
C# parse time         : 174ms
candidates check time : 45ms
console write time    : 0ms

[api-updater (non-obsolete-error-filter)] 1/10/2022 1:10:17 PM : Starting C:/Program Files/Unity/Hub/Editor/2020.3.18f1/Editor/Data/Tools/ScriptUpdater/APIUpdater.NonObsoleteApiUpdaterDetector.exe
[api-updater (non-obsolete-error-filter)] 
----------------------------------
jit/startup time      : 1048.9535ms
moved types parse time: 42ms
candidates parse time : 1ms
C# parse time         : 276ms
candidates check time : 50ms
console write time    : 0ms

